cmpe282Arpeet140/Employee.class
cmpe282Arpeet140/EmployeeRepository1.class
cmpe282Arpeet140/EmployeeController.class
cmpe282Arpeet140/ProjectRepository.class
cmpe282Arpeet140/ProjectController.class
cmpe282Arpeet140/Application.class
cmpe282Arpeet140/Project.class
