/home/arpeet/IdeaProjects/cmpe282_arpeet_desai/src/main/java/cmpe282Arpeet140/EmployeeController.java
/home/arpeet/IdeaProjects/cmpe282_arpeet_desai/src/main/java/cmpe282Arpeet140/EmployeeRepository1.java
/home/arpeet/IdeaProjects/cmpe282_arpeet_desai/src/main/java/cmpe282Arpeet140/ProjectRepository.java
/home/arpeet/IdeaProjects/cmpe282_arpeet_desai/src/main/java/cmpe282Arpeet140/Project.java
/home/arpeet/IdeaProjects/cmpe282_arpeet_desai/src/main/java/cmpe282Arpeet140/ProjectController.java
/home/arpeet/IdeaProjects/cmpe282_arpeet_desai/src/main/java/cmpe282Arpeet140/Employee.java
/home/arpeet/IdeaProjects/cmpe282_arpeet_desai/src/main/java/cmpe282Arpeet140/Application.java
